Dear Ms. Risa Asakusa san,
This is my Daily report.

----------------
Date: Tuesday July 31, 2018 (31/7/2018)
Days: 42
Full Name: Võ Quốc Huy
----------------

+ Task010-Project_Logmansion
	- Completed: 10%
	
----------------

Detail:

	+ Task010-Project_Logmansion
		- Analyzed.
		- Completed: "header", "footer", "section banner" (PC only).


-----------------
Goodbye and See you tomorrow !