Dear Risa Asakusa san,
This is my Daily report.

----------------
Date: Monday August 27, 2018 (27/8/2018)
Days: 61
Full Name: Võ Quốc Huy
----------------

+ Redmine

----------------

Detail:
	

	+ Sandbox:
		- Improved Pug Templates.
	- Creating Redmine server.


-----------------
Goodbye and See you tomorrow !